{
	"defaultSeverity": "warning",
	"extends": [
		"tslint:recommended"
	],
	"linterOptions": {
		"exclude": [
			"node_modules/**"
		]
	},
	"rules": {
		"quotemark": [true, "single"],
		"indent": [true, "tabs", 4],
		"interface-name": false,
		"ordered-imports": false,
		"object-literal-sort-keys": false,
		"no-consecutive-blank-lines": true,
		"variable-name": [
			true,
			"ban-keywords",
			"check-format",
			"allow-snake-case"
		]
	}
}
